episode_reward_max,episode_reward_min,episode_reward_mean,episode_len_mean,episodes_this_iter,num_healthy_workers,timesteps_total,timesteps_this_iter,agent_timesteps_total,done,episodes_total,training_iteration,trial_id,experiment_id,date,timestamp,time_this_iter_s,time_total_s,pid,hostname,node_ip,time_since_restore,timesteps_since_restore,iterations_since_restore,hist_stats/episode_reward,hist_stats/episode_lengths,sampler_perf/mean_raw_obs_processing_ms,sampler_perf/mean_inference_ms,sampler_perf/mean_action_processing_ms,sampler_perf/mean_env_wait_ms,sampler_perf/mean_env_render_ms,timers/sample_time_ms,timers/sample_throughput,timers/learn_time_ms,timers/learn_throughput,timers/update_time_ms,info/num_steps_sampled,info/num_agent_steps_sampled,info/num_steps_trained,info/num_steps_trained_this_iter,perf/cpu_util_percent,perf/ram_util_percent,perf/gpu_util_percent0,perf/vram_util_percent0,info/learner/default_policy/learner_stats/cur_kl_coeff,info/learner/default_policy/learner_stats/cur_lr,info/learner/default_policy/learner_stats/total_loss,info/learner/default_policy/learner_stats/policy_loss,info/learner/default_policy/learner_stats/vf_loss,info/learner/default_policy/learner_stats/vf_explained_var,info/learner/default_policy/learner_stats/kl,info/learner/default_policy/learner_stats/entropy,info/learner/default_policy/learner_stats/entropy_coeff
-893.5236112776292,-1743.7263187018598,-1232.024257896131,200.0,35,7,7994,7994,7994,False,35,1,28c38_00000,b557063ef22844868a155ed1eb731458,2022-03-14_15-19-51,1647271191,8.184506893157959,8.184506893157959,131,festo,192.168.42.107,8.184506893157959,7994,1,"[-1181.0755038380942, -1288.3354162384646, -948.1098568452087, -1574.3397632801318, -974.1878818286079, -1179.7462588897954, -1080.7296082246344, -968.6155294357233, -1250.5839223402904, -959.1729950704399, -893.5236112776292, -1548.176091311917, -1482.5380636189652, -1404.2214201200538, -1674.4633057599092, -1743.7263187018598, -1179.160988780765, -1618.5071477796628, -984.555034342472, -1697.1140677705616, -1288.9744404042754, -969.6163782383549, -924.1702633626071, -1214.2564588126838, -1312.6787333292111, -1064.5535455202478, -1298.0610729253945, -932.2243257656578, -1176.3450054223485, -931.3113923233964, -1478.1575176769936, -1108.0286407530566, -1073.1725042645558, -1637.5496409879554, -1080.8663211226572]","[200, 200, 200, 200, 200, 200, 200, 200, 200, 200, 200, 200, 200, 200, 200, 200, 200, 200, 200, 200, 200, 200, 200, 200, 200, 200, 200, 200, 200, 200, 200, 200, 200, 200, 200]",0.10725304925759097,1.0896522303608536,0.10242108746836028,0.13316692285069287,0.0,1708.715,4678.369,6494.632,1230.863,3.683,7994,7994,7994,7994,25.763636363636365,63.72727272727272,0.12818181818181817,0.7615559895833333,0.20000000298023224,4.999999873689376e-05,137301.75,-0.0031956597,137301.75,0.021118749,0.0038756176,1.4194685,0.0
-771.5723721652962,-1743.7263187018598,-1204.0137978466,200.0,42,7,15988,7994,15988,False,77,2,28c38_00000,b557063ef22844868a155ed1eb731458,2022-03-14_15-19-58,1647271198,7.254958629608154,15.439465522766113,131,festo,192.168.42.107,15.439465522766113,15988,2,"[-1181.0755038380942, -1288.3354162384646, -948.1098568452087, -1574.3397632801318, -974.1878818286079, -1179.7462588897954, -1080.7296082246344, -968.6155294357233, -1250.5839223402904, -959.1729950704399, -893.5236112776292, -1548.176091311917, -1482.5380636189652, -1404.2214201200538, -1674.4633057599092, -1743.7263187018598, -1179.160988780765, -1618.5071477796628, -984.555034342472, -1697.1140677705616, -1288.9744404042754, -969.6163782383549, -924.1702633626071, -1214.2564588126838, -1312.6787333292111, -1064.5535455202478, -1298.0610729253945, -932.2243257656578, -1176.3450054223485, -931.3113923233964, -1478.1575176769936, -1108.0286407530566, -1073.1725042645558, -1637.5496409879554, -1080.8663211226572, -771.5723721652962, -877.025805490338, -1689.8403972381832, -1512.7507899285656, -851.9576863920903, -1480.622628736908, -1144.983353578147, -867.5003306059133, -1005.8455547131184, -1006.8854714893677, -999.7235504850037, -1031.6586048245933, -1328.446659837794, -1493.7989589677961, -1156.1032291073507, -1011.2028692377054, -1331.9012558368565, -904.2159586499911, -982.8109125739237, -1225.2912901588513, -939.0075075146957, -1302.9706241079764, -1490.3928283852142, -967.8775660631707, -1650.8031889566007, -1341.002421415803, -1087.7241234887263, -1182.434026683063, -1719.2820963536496, -1506.3042983328269, -903.7542641870573, -1190.6726435891464, -1026.2609127109338, -988.2220316308221, -986.3733321399552, -1344.292357866937, -1684.7967780325955, -1175.2491795956946, -1333.7765914751812, -1091.6427671788538, -845.5529924000903, -1155.6831956968595]","[200, 200, 200, 200, 200, 200, 200, 200, 200, 200, 200, 200, 200, 200, 200, 200, 200, 200, 200, 200, 200, 200, 200, 200, 200, 200, 200, 200, 200, 200, 200, 200, 200, 200, 200, 200, 200, 200, 200, 200, 200, 200, 200, 200, 200, 200, 200, 200, 200, 200, 200, 200, 200, 200, 200, 200, 200, 200, 200, 200, 200, 200, 200, 200, 200, 200, 200, 200, 200, 200, 200, 200, 200, 200, 200, 200, 200]",0.10690947253498577,1.0493999760173138,0.1018688195167004,0.13281845838511394,0.0,4858.925,1645.22,6125.701,1304.993,3.541,15988,15988,15988,7994,23.520000000000003,63.9,0.13999999999999999,0.7615559895833333,0.10000000149011612,4.999999873689376e-05,103883.24,-0.002967286,103883.25,0.03186549,0.005834215,1.4069816,0.0
-771.5723721652962,-1719.2820963536496,-1159.9526361257817,200.0,42,7,23982,7994,23982,True,119,3,28c38_00000,b557063ef22844868a155ed1eb731458,2022-03-14_15-20-05,1647271205,7.254216194152832,22.693681716918945,131,festo,192.168.42.107,22.693681716918945,23982,3,"[-1697.1140677705616, -1288.9744404042754, -969.6163782383549, -924.1702633626071, -1214.2564588126838, -1312.6787333292111, -1064.5535455202478, -1298.0610729253945, -932.2243257656578, -1176.3450054223485, -931.3113923233964, -1478.1575176769936, -1108.0286407530566, -1073.1725042645558, -1637.5496409879554, -1080.8663211226572, -771.5723721652962, -877.025805490338, -1689.8403972381832, -1512.7507899285656, -851.9576863920903, -1480.622628736908, -1144.983353578147, -867.5003306059133, -1005.8455547131184, -1006.8854714893677, -999.7235504850037, -1031.6586048245933, -1328.446659837794, -1493.7989589677961, -1156.1032291073507, -1011.2028692377054, -1331.9012558368565, -904.2159586499911, -982.8109125739237, -1225.2912901588513, -939.0075075146957, -1302.9706241079764, -1490.3928283852142, -967.8775660631707, -1650.8031889566007, -1341.002421415803, -1087.7241234887263, -1182.434026683063, -1719.2820963536496, -1506.3042983328269, -903.7542641870573, -1190.6726435891464, -1026.2609127109338, -988.2220316308221, -986.3733321399552, -1344.292357866937, -1684.7967780325955, -1175.2491795956946, -1333.7765914751812, -1091.6427671788538, -845.5529924000903, -1155.6831956968595, -1333.3283193482632, -1553.8090456811492, -1550.2825068524319, -1083.7578261640037, -1082.0724844751787, -1033.912160200035, -1673.5697327532564, -1526.6935337025502, -1399.7612390027573, -773.9463861671056, -1337.4259419482792, -938.8553161401545, -1456.4185858508702, -1019.4127532769098, -947.335839459046, -1070.8324801615483, -1468.9359007892083, -971.2279091205612, -1111.7318874140133, -965.9586860237551, -1030.5725504407471, -992.8197301831788, -1218.0292520744667, -926.6880961426671, -946.4742714371513, -892.7233748296809, -915.3594771677067, -889.4316208698832, -981.8097412321937, -929.5752080755506, -1177.7472210614055, -895.2086269819993, -884.7599820311744, -1164.6310401657581, -888.6508419398629, -1048.237018810599, -874.2005243304451, -1221.3186878332674, -1335.187958713467, -1022.0533405870971, -1501.3009411621988, -1183.9218554729907]","[200, 200, 200, 200, 200, 200, 200, 200, 200, 200, 200, 200, 200, 200, 200, 200, 200, 200, 200, 200, 200, 200, 200, 200, 200, 200, 200, 200, 200, 200, 200, 200, 200, 200, 200, 200, 200, 200, 200, 200, 200, 200, 200, 200, 200, 200, 200, 200, 200, 200, 200, 200, 200, 200, 200, 200, 200, 200, 200, 200, 200, 200, 200, 200, 200, 200, 200, 200, 200, 200, 200, 200, 200, 200, 200, 200, 200, 200, 200, 200, 200, 200, 200, 200, 200, 200, 200, 200, 200, 200, 200, 200, 200, 200, 200, 200, 200, 200, 200, 200]",0.10670845642958504,1.0184647329173766,0.10151963167105528,0.1326602150571491,0.0,5666.969,1410.631,5999.071,1332.54,3.506,23982,23982,23982,7994,23.729999999999997,64.0,0.15099999999999997,0.7615559895833333,0.10000000149011612,4.999999873689376e-05,90191.89,-0.0026348846,90191.9,0.01814122,0.0053546815,1.3854879,0.0
